^C:\DOCUMENTS AND SETTINGS\JA\SOURCE\REPOS\EXTERNALS\TINYXML2-MASTER\TINYXML2.CPP
C:\DOCUMENTS AND SETTINGS\JA\SOURCE\REPOS\EXTERNALS\TINYXML2-MASTER\TINYXML2\TEMP\WIN32-RELEASE-DLL\VC120.PDB
C:\DOCUMENTS AND SETTINGS\JA\SOURCE\REPOS\EXTERNALS\TINYXML2-MASTER\TINYXML2\TEMP\WIN32-RELEASE-DLL\TINYXML2.OBJ
