^C:\Documents and Settings\Ja\Source\Repos\Externals\tinyxml2-master\tinyxml2\tinyxml2.vcxproj
C:\Documents and Settings\Ja\Source\Repos\Externals\tinyxml2-master\tinyxml2\bin\Win32-Release-Dll\tinyxml2.lib
C:\Documents and Settings\Ja\Source\Repos\Externals\tinyxml2-master\tinyxml2\bin\Win32-Release-Dll\tinyxml2.exp
